Retrieve Ontologies, Terms, and their Relatives — get_ontologies • OLSr
…
For get_term(), the identifier id can be one of three
forms. The id and obo_id forms are synonyms and follow the
pattern ontology abbrevation, :, and term id, e.g., "CL:0002494".
The short_form is typically like obo_id but with : replaced
by _. An iri is the purl resource locator, typically
"http://purl.obolibrary.org/...".

When no relatives are found, get_parents() etc. return a tibble
with 0 rows (and sometimes 0 columns).

    Examples

onto <- get_ontologies()
onto
#> # A tibble: 265 × 31
#>    id        title          description version numberOfTerms numberOfProperties
#>    <chr>     <chr>          <chr>       <chr>           <int>              <int>
#>  1 ado       Alzheimer's D… Alzheimer'… 2.0.1            1963                186
#>  2 afpo      African Popul… AfPO is an… 2024-0…           473                 62
#>  3 agro      Agronomy Onto… AgrO is an… NA               4162                293
#>  4 aism      Ontology for … The ontolo… 2024-0…          8540                567
#>  5 amphx     Amphioxus Dev… An ontolog… NA                403                 10
#>  6 apo       Ascomycete Ph… A structur… 2024-1…           619                 27
#>  7 apollo_sv Apollo Struct… An OWL2 on… 2024-1…          1715                396
#>  8 aro       Antibiotic Re… Antibiotic… NA               8526                 25
#>  9 bco       Biological Co… An ontolog… 2021-1…           253                472
#> 10 bfo       Basic Formal … The upper … NA                 35                 22
#> # ℹ 255 more rows
#> # ℹ 25 more variables: numberOfIndividuals <int>, languages <list>,
#> #   loaded <chr>, updated <chr>, versionIri <chr>, namespace <chr>,
#> #   preferredPrefix <chr>, homepage <chr>, mailingList <chr>, tracker <chr>,
#> #   logo <lgl>, creators <lgl>, annotations <lgl>, fileLocation <chr>,
#> #   oboSlims <lgl>, labelProperty <chr>, definitionProperties <list>,
#> #   synonymProperties <list>, hierarchicalProperties <list>, baseUris <list>, …
…
get_roots("cl")
#> # A tibble: 138 × 13
#>    obo_id  label description iri   synonyms annotation   has_children short_form
#>    <chr>   <chr> <chr>       <chr> <list>   <list>       <lgl>        <chr>     
#>  1 GO:001… regu… Any proces… http… <NULL>   <named list> TRUE         GO_0010817
#>  2 GO:001… resp… Any proces… http… <list>   <named list> TRUE         GO_0019236
#>  3 GO:005… regu… Any proces… http… <NULL>   <named list> TRUE         GO_0050803
#>  4 GO:005… regu… Any proces… http… <NULL>   <named list> TRUE         GO_0050878
#>  5 GO:009… cell… Any proces… http… <NULL>   <named list> TRUE         GO_0097237
#>  6 IAO:00… info… NA          http… <NULL>   <NULL>       TRUE         IAO_00000…
#>  7 NCBITa… root  NA          http… <list>   <named list> TRUE         NCBITaxon…
#>  8 SO:000… SO_0… NA          http… <NULL>   <NULL>       TRUE         SO_0000704
#>  9 SO:000… sequ… NA          http… <NULL>   <NULL>       TRUE         SO_0001260
#> 10 UBERON… proc… An occurre… http… <NULL>   <named list> TRUE         UBERON_00…
#> # ℹ 128 more rows
#> # ℹ 5 more variables: in_subset <list>, obo_definition_citation <list>,
#> #   obo_xref <list>, obo_synonym <list>, `_links` <list>
…
#> Querying OLS ■■■                                6% | ETA: 34s
#> Querying OLS ■■■■■                             15% | ETA: 27s
#> Querying OLS ■■■■■■■■                          24% | ETA: 24s
#> Querying OLS ■■■■■■■■■■■■                      35% | ETA: 20s
#> Querying OLS ■■■■■■■■■■■■■                     41% | ETA: 19s
#> Querying OLS ■■■■■■■■■■■■■■■                   47% | ETA: 19s
#> Querying OLS ■■■■■■■■■■■■■■■■■                 53% | ETA: 17s
#> Querying OLS ■■■■■■■■■■■■■■■■■■■■              62% | ETA: 14s
#> Querying OLS ■■■■■■■■■■■■■■■■■■■■■■            71% | ETA: 11s
#> Querying OLS ■■■■■■■■■■■■■■■■■■■■■■■■          76% | ETA:  9s
#> Querying OLS ■■■■■■■■■■■■■■■■■■■■■■■■■■        82% | ETA:  7s
#> Querying OLS ■■■■■■■■■■■■■■■■■■■■■■■■■■■■      91% | ETA:  3s
#> Querying OLS ■■■■■■■■■■■■■■■■■■■■■■■■■■■■■■■  100% | ETA:  0s
terms
#> # A tibble: 2,861 × 13
#>    label  obo_id description iri   synonyms annotation   has_children short_form
#>    <chr>  <chr>  <chr>       <chr> <list>   <list>       <lgl>        <chr>     
#>  1 mesen… CL:40… Any mesenc… http… <list>   <named list> FALSE        CL_4040004
#>  2 mesen… CL:40… A mesenchy… http… <list>   <named list> FALSE        CL_4040005
#>  3 derma… CL:40… A chromato… http… <NULL>   <named list> FALSE        CL_4040006
#>  4 TAC3-… CL:40… A GABAergi… http… <list>   <named list> FALSE        CL_4042001
#>  5 TAC3-… CL:40… A nucleus … http… <list>   <named list> FALSE        CL_4042002
#>  6 borde… CL:40… A central … http… <list>   <named list> TRUE         CL_4042003
#>  7 choro… CL:40… A choroid … http… <list>   <named list> FALSE        CL_4042004
#>  8 strom… CL:40… A choroid … http… <list>   <named list> FALSE        CL_4042005
#>  9 dural… CL:40… A border a… http… <list>   <named list> FALSE        CL_4042006
#> 10 proto… CL:40… An astrocy… http… <NULL>   <named list> FALSE        CL_4042007
#> # ℹ 2,851 more rows
#> # ℹ 5 more variables: in_subset <list>, obo_definition_citation <list>,
#> #   obo_xref <list>, obo_synonym <list>, `_links` <list>
…
get_descendants("cl", "CL:0002494")
#> # A tibble: 68 × 14
#>    obo_id     label description iri   synonyms annotation   has_children is_root
#>    <chr>      <chr> <chr>       <chr> <list>   <list>       <lgl>        <lgl>  
#>  1 CL:0008022 endo… "A mesench… http… <NULL>   <NULL>       FALSE        FALSE  
#>  2 CL:0000513 card… "A precurs… http… <list>   <named list> FALSE        FALSE  
#>  3 CL:0000746 card… "Cardiac m… http… <list>   <named list> TRUE         FALSE  
#>  4 CL:0000193 card… "A striate… http… <NULL>   <NULL>       FALSE        FALSE  
#>  5 CL:0002086 spec… "A cardiac… http… <NULL>   <named list> TRUE         FALSE  
#>  6 CL:0002068 Purk… "Specializ… http… <list>   <named list> TRUE         FALSE  
#>  7 CL:1000376 Purk… "A Purkinj… http… <NULL>   <named list> FALSE        FALSE  
#>  8 CL:1000479 Purk… "A Purkinj… http… <NULL>   <named list> FALSE        FALSE  
#>  9 CL:1000483 Purk… "A Purkinj… http… <NULL>   <named list> FALSE        FALSE  
#> 10 CL:1000484 Purk… "A Purkinj… http… <NULL>   <named list> FALSE        FALSE  
#> # ℹ 58 more rows
#> # ℹ 6 more variables: short_form <chr>, in_subset <list>,
#> #   obo_definition_citation <list>, obo_xref <list>, obo_synonym <list>,
#> #   `_links` <list>
…
