Working with Ancestor and Descendant Term Graphs — get_ancestors_graph • OLSr
…
olsr_graph_ontology(anc)
#> [1] "cl"
olsr_graph_ids(anc)
#> [1] "CL:0000236"
olsr_graph_nodes(anc)
#> # A tibble: 21 × 13
#>    obo_id  label description iri   synonyms annotation   has_children short_form
#>    <chr>   <chr> <chr>       <chr> <list>   <list>       <lgl>        <chr>     
#>  1 CL:000… B ce… A lymphocy… http… <list>   <named list> TRUE         CL_0000236
#>  2 CL:000… lymp… A lymphocy… http… <NULL>   <named list> TRUE         CL_0000945
#>  3 CL:000… lymp… A lymphocy… http… <NULL>   <named list> TRUE         CL_0000542
#>  4 CL:000… mono… A leukocyt… http… <list>   <named list> TRUE         CL_0000842
#>  5 CL:000… leuk… An achroma… http… <list>   <named list> TRUE         CL_0000738
#>  6 CL:000… sing… A cell wit… http… <NULL>   <NULL>       TRUE         CL_0000226
#>  7 CL:000… nucl… A cell con… http… <NULL>   <named list> TRUE         CL_0002242
#>  8 CL:000… hema… A cell of … http… <list>   <named list> TRUE         CL_0000988
#>  9 CL:000… moti… A cell tha… http… <NULL>   <NULL>       TRUE         CL_0000219
#> 10 CL:000… NA    NA          NA    <NULL>   <NULL>       NA           NA        
#> # ℹ 11 more rows
#> # ℹ 5 more variables: in_subset <list>, obo_definition_citation <list>,
#> #   obo_xref <list>, obo_synonym <list>, `_links` <list>
olsr_graph_edges(anc)
#> # A tibble: 24 × 2
#>    from       to        
#>    <chr>      <chr>     
#>  1 CL:0000236 CL:0000945
#>  2 CL:0000945 CL:0000542
#>  3 CL:0000542 CL:0000842
#>  4 CL:0000842 CL:0000738
#>  5 CL:0000842 CL:0000226
#>  6 CL:0000738 CL:0002242
#>  7 CL:0000738 CL:0000988
#>  8 CL:0000738 CL:0000219
#>  9 CL:0000226 CL:0002242
#> 10 CL:0002242 CL:0000003
#> # ℹ 14 more rows
…
