Ancestor and Descendant Term Graphs — get_ancestors_graph • OLSr
…
#>  8 CL:000… hema… A cell of … http… <list>   <named list> TRUE         CL_0000988
#>  9 CL:000… euka… Any cell t… http… <NULL>   <named list> TRUE         CL_0000255
#> 10 CL:000… moti… A cell tha… http… <NULL>   <named list> TRUE         CL_0000219
#> 11 BFO:00… NA    NA          NA    <NULL>   <NULL>       NA           NA        
#> 12 CL:000… cell  A material… http… <NULL>   <named list> TRUE         CL_0000000
#> 13 BFO:00… NA    NA          NA    <NULL>   <NULL>       NA           NA        
#> 14 UBERON… NA    NA          NA    <NULL>   <NULL>       NA           NA        
#> 15 UBERON… NA    NA          NA    <NULL>   <NULL>       NA           NA        
#> 16 UBERON… NA    NA          NA    <NULL>   <NULL>       NA           NA        
#> 17 BFO:00… NA    NA          NA    <NULL>   <NULL>       NA           NA        
#> 18 BFO:00… NA    NA          NA    <NULL>   <NULL>       NA           NA        
#> # ℹ 5 more variables: in_subset <list>, obo_definition_citation <list>,
#> #   obo_xref <list>, obo_synonym <list>, `_links` <list>
olsr_graph_edges(anc)
#> # A tibble: 24 × 2
#>    from       to         
#>    <chr>      <chr>      
#>  1 CL:0000236 CL:0000945 
#>  2 CL:0000945 CL:0000542 
#>  3 CL:0000542 CL:0000842 
#>  4 CL:0000842 CL:0000738 
#>  5 CL:0000842 CL:0000226 
#>  6 CL:0000738 CL:0002242 
#>  7 CL:0000738 CL:0000988 
#>  8 CL:0000738 CL:0000255 
#>  9 CL:0000738 CL:0000219 
#> 10 CL:0000738 BFO:0000002
#> # ℹ 14 more rows
…
