Introduction to OLSr • OLSr
…
Attach the library to the current session. Most functions in OLSr return results as a
tibble, so the dplyr package is
also attached.

library(OLSr)

Ontologies

Start by discovering ontologies available in the OLS.

onto <- get_ontologies()
onto
#> # A tibble: 265 × 31
#>    id        title          description version numberOfTerms numberOfProperties
#>    <chr>     <chr>          <chr>       <chr>           <int>              <int>
#>  1 ado       Alzheimer's D… Alzheimer'… 2.0.1            1963                186
#>  2 afpo      African Popul… AfPO is an… 2024-0…           473                 62
#>  3 agro      Agronomy Onto… AgrO is an… NA               4162                293
#>  4 aism      Ontology for … The ontolo… 2024-0…          8540                567
#>  5 amphx     Amphioxus Dev… An ontolog… NA                403                 10
#>  6 apo       Ascomycete Ph… A structur… 2024-1…           619                 27
#>  7 apollo_sv Apollo Struct… An OWL2 on… 2024-1…          1715                396
#>  8 aro       Antibiotic Re… Antibiotic… NA               8526                 25
#>  9 bco       Biological Co… An ontolog… 2021-1…           253                472
#> 10 bfo       Basic Formal … The upper … NA                 35                 22
#> # ℹ 255 more rows
#> # ℹ 25 more variables: numberOfIndividuals <int>, languages <list>,
#> #   loaded <chr>, updated <chr>, versionIri <chr>, namespace <chr>,
#> #   preferredPrefix <chr>, homepage <chr>, mailingList <chr>, tracker <chr>,
#> #   logo <lgl>, creators <lgl>, annotations <lgl>, fileLocation <chr>,
#> #   oboSlims <lgl>, labelProperty <chr>, definitionProperties <list>,
#> #   synonymProperties <list>, hierarchicalProperties <list>, baseUris <list>, …
…
Terms

Terms are central to using an ontology. Retrieve all terms from the
‘cl’ ontology. By default, only terms defined in the ontology per
se are used; add the argument all_ontologies = TRUE to
this and subsequent functions to also include terms referenced in other
ontologies. This query can take several minutes to complete when first
executed, but the result is cached locally (as discussed in greater
detail below) so subsequent use is quick.

terms <- get_terms("cl")
terms
#> # A tibble: 2,861 × 13
#>    label  obo_id description iri   synonyms annotation   has_children short_form
#>    <chr>  <chr>  <chr>       <chr> <list>   <list>       <lgl>        <chr>     
#>  1 mesen… CL:40… Any mesenc… http… <list>   <named list> FALSE        CL_4040004
#>  2 mesen… CL:40… A mesenchy… http… <list>   <named list> FALSE        CL_4040005
#>  3 derma… CL:40… A chromato… http… <NULL>   <named list> FALSE        CL_4040006
#>  4 TAC3-… CL:40… A GABAergi… http… <list>   <named list> FALSE        CL_4042001
#>  5 TAC3-… CL:40… A nucleus … http… <list>   <named list> FALSE        CL_4042002
#>  6 borde… CL:40… A central … http… <list>   <named list> TRUE         CL_4042003
#>  7 choro… CL:40… A choroid … http… <list>   <named list> FALSE        CL_4042004
#>  8 strom… CL:40… A choroid … http… <list>   <named list> FALSE        CL_4042005
#>  9 dural… CL:40… A border a… http… <list>   <named list> FALSE        CL_4042006
#> 10 proto… CL:40… An astrocy… http… <NULL>   <named list> FALSE        CL_4042007
#> # ℹ 2,851 more rows
#> # ℹ 5 more variables: in_subset <list>, obo_definition_citation <list>,
#> #   obo_xref <list>, obo_synonym <list>, `_links` <list>
…
Hierarchical data

Some columns in the terms table represent hieararchical
(relational, 1:many mapping) data, e.g., the in_subset
column

terms |>
    select(label, obo_id, in_subset)
#> # A tibble: 2,861 × 3
#>    label                                           obo_id     in_subset 
#>    <chr>                                           <chr>      <list>    
#>  1 mesenchymal stem cell of orbital adipose tissue CL:4040004 <list [2]>
#>  2 mesenchymal stem cell of apical papilla         CL:4040005 <list [2]>
#>  3 dermal chromatophore                            CL:4040006 <list [2]>
#>  4 TAC3-positive striatal interneuron              CL:4042001 <list [2]>
#>  5 TAC3-positive medium spiny neuron               CL:4042002 <list [2]>
#>  6 border associated macrophage                    CL:4042003 <list [2]>
#>  7 choroid epiplexus macrophage                    CL:4042004 <list [2]>
#>  8 stromal choroid plexus macrophage               CL:4042005 <list [2]>
#>  9 dural macrophage                                CL:4042006 <list [2]>
#> 10 protoplasmic astrocyte                          CL:4042007 <list [2]>
#> # ℹ 2,851 more rows
…
The R for Data Science chapter on hierarchical data suggests
using tidyr
functions unnest_wider() and unnest_longer()
to expand such data.

terms |>
    select(in_subset, obo_id, label) |>
    tidyr::unnest_longer(in_subset)
#> # A tibble: 6,887 × 3
#>    in_subset    obo_id     label                                          
#>    <chr>        <chr>      <chr>                                          
#>  1 human_subset CL:4040004 mesenchymal stem cell of orbital adipose tissue
#>  2 mouse_subset CL:4040004 mesenchymal stem cell of orbital adipose tissue
#>  3 human_subset CL:4040005 mesenchymal stem cell of apical papilla        
#>  4 mouse_subset CL:4040005 mesenchymal stem cell of apical papilla        
#>  5 human_subset CL:4040006 dermal chromatophore                           
#>  6 mouse_subset CL:4040006 dermal chromatophore                           
#>  7 human_subset CL:4042001 TAC3-positive striatal interneuron             
#>  8 mouse_subset CL:4042001 TAC3-positive striatal interneuron             
#>  9 human_subset CL:4042002 TAC3-positive medium spiny neuron              
#> 10 mouse_subset CL:4042002 TAC3-positive medium spiny neuron              
#> # ℹ 6,877 more rows
…
is_human_reference_atlas <- function(x)
    vapply(x, \(x) any(x == "human_reference_atlas"), logical(1))

human_reference_atlas <-
    terms |>
    filter(is_human_reference_atlas(in_subset))

human_reference_atlas
#> # A tibble: 480 × 13
#>    label  obo_id description iri   synonyms annotation   has_children short_form
#>    <chr>  <chr>  <chr>       <chr> <list>   <list>       <lgl>        <chr>     
#>  1 brain… CL:40… "A cell th… http… <NULL>   <named list> FALSE        CL_4023072
#>  2 mammi… CL:40… "A neuron … http… <NULL>   <named list> FALSE        CL_4023074
#>  3 midbr… CL:40… "A GABAerg… http… <NULL>   <named list> FALSE        CL_4023079
#>  4 midge… CL:40… "A retinal… http… <NULL>   <named list> TRUE         CL_4023188
#>  5 paras… CL:40… "A retinal… http… <list>   <named list> TRUE         CL_4023189
#>  6 alveo… CL:40… "An alveol… http… <list>   <named list> FALSE        CL_4028002
#>  7 alveo… CL:40… "An alveol… http… <list>   <named list> FALSE        CL_4028003
#>  8 alveo… CL:40… "A pulmona… http… <list>   <named list> FALSE        CL_4028004
#>  9 alveo… CL:40… "A pulmona… http… <list>   <named list> FALSE        CL_4028006
#> 10 fallo… CL:40… "An epithe… http… <list>   <named list> FALSE        CL_4030006
#> # ℹ 470 more rows
#> # ℹ 5 more variables: in_subset <list>, obo_definition_citation <list>,
#> #   obo_xref <list>, obo_synonym <list>, `_links` <list>
…
Use cache_directory() to discover the location of the
cache.

cache_directory()
#> [1] "/home/runner/.cache/R/OLSr"

This location follows conventions of
tools::R_user_dir(). All files in this directory have been
created by OLSr.

cache_info() is a convenience function to summarize
files in the cache.

cache_info()
#> # A tibble: 96 × 5
#>    file         size mtime               ctime               atime              
#>    <chr>       <dbl> <dttm>              <dttm>              <dttm>             
#>  1 03d5b9987d…   808 2025-01-23 18:44:27 2025-01-23 18:44:27 2025-01-23 18:44:27
#>  2 06f6277f34…   154 2025-01-23 18:44:17 2025-01-23 18:44:17 2025-01-23 18:44:17
#>  3 09405ddbab…   768 2025-01-23 18:44:27 2025-01-23 18:44:27 2025-01-23 18:44:27
#>  4 09f0d0cb75…   720 2025-01-23 18:44:04 2025-01-23 18:44:04 2025-01-23 18:44:04
#>  5 1019c9f790…   154 2025-01-23 18:44:20 2025-01-23 18:44:20 2025-01-23 18:44:20
#>  6 1152719177… 21100 2025-01-23 18:44:01 2025-01-23 18:44:01 2025-01-23 18:44:01
#>  7 13938f8890…  5996 2025-01-23 18:44:38 2025-01-23 18:44:38 2025-01-23 18:44:38
#>  8 1d41ffdf45…   154 2025-01-23 18:44:24 2025-01-23 18:44:24 2025-01-23 18:44:24
#>  9 1d4576da3a…  1407 2025-01-23 18:44:12 2025-01-23 18:44:12 2025-01-23 18:44:12
#> 10 236f616b89…   154 2025-01-23 18:44:14 2025-01-23 18:44:14 2025-01-23 18:44:14
#> # ℹ 86 more rows

Each file represents the response to a single memoised function call.
The file name is a hash of the function definition and arguments; it is
not possible to associate individual files with specific function calls.
Nonetheless, it can be informative to identify files modified more than,
say 1 day ago, or the most recently modified file, or perhaps the total
size of files in the cache.

## cache objects modified in the last 24 hours
cache_info() |>
    filter(mtime > Sys.time() - 24 * 60 * 60)
#> # A tibble: 96 × 5
#>    file         size mtime               ctime               atime              
#>    <chr>       <dbl> <dttm>              <dttm>              <dttm>             
#>  1 03d5b9987d…   808 2025-01-23 18:44:27 2025-01-23 18:44:27 2025-01-23 18:44:27
#>  2 06f6277f34…   154 2025-01-23 18:44:17 2025-01-23 18:44:17 2025-01-23 18:44:17
#>  3 09405ddbab…   768 2025-01-23 18:44:27 2025-01-23 18:44:27 2025-01-23 18:44:27
#>  4 09f0d0cb75…   720 2025-01-23 18:44:04 2025-01-23 18:44:04 2025-01-23 18:44:04
#>  5 1019c9f790…   154 2025-01-23 18:44:20 2025-01-23 18:44:20 2025-01-23 18:44:20
#>  6 1152719177… 21100 2025-01-23 18:44:01 2025-01-23 18:44:01 2025-01-23 18:44:01
#>  7 13938f8890…  5996 2025-01-23 18:44:38 2025-01-23 18:44:38 2025-01-23 18:44:38
#>  8 1d41ffdf45…   154 2025-01-23 18:44:24 2025-01-23 18:44:24 2025-01-23 18:44:24
#>  9 1d4576da3a…  1407 2025-01-23 18:44:12 2025-01-23 18:44:12 2025-01-23 18:44:12
#> 10 236f616b89…   154 2025-01-23 18:44:14 2025-01-23 18:44:14 2025-01-23 18:44:14
#> # ℹ 86 more rows
…
