Case Study: CELLxGENE Ontologies • OLSr
…
Start by loading the OLSr and cellxgenedp
packages

library(OLSr)
library(cellxgenedp)

CELLxGENE

A central element of the CELLxGENE resource is the collection of datasets. These are
discovered programmatically using

db <- db()
datasets(db)
#> # A tibble: 1,720 × 33
#>    dataset_id   dataset_version_id collection_id donor_id assay  batch_condition
#>    <chr>        <chr>              <chr>         <list>   <list> <list>         
#>  1 1f1c5c14-59… 2afef4bd-99af-41f… 2902f08c-f83… <chr>    <list> <lgl [1]>      
#>  2 f9ad5649-f3… d9db936c-41c6-439… 180bff9c-c8a… <chr>    <list> <lgl [1]>      
#>  3 cd77258f-b0… 000198ac-27c7-4b9… 180bff9c-c8a… <chr>    <list> <lgl [1]>      
#>  4 bdacc907-7c… 017837df-b8be-4a4… 180bff9c-c8a… <chr>    <list> <lgl [1]>      
#>  5 b94e3bdf-a3… 3512034b-9a5c-4db… 180bff9c-c8a… <chr>    <list> <lgl [1]>      
#>  6 9f1049ac-f8… bb8f672d-593d-482… 180bff9c-c8a… <chr>    <list> <lgl [1]>      
#>  7 873ff933-4f… a7d3ba30-903d-44f… 180bff9c-c8a… <chr>    <list> <lgl [1]>      
#>  8 75a881cf-5d… 50d7154f-e5b9-48a… 180bff9c-c8a… <chr>    <list> <lgl [1]>      
#>  9 6c600df6-dd… 1f97f38b-2a9e-48a… 180bff9c-c8a… <chr>    <list> <lgl [1]>      
#> 10 2727d83a-0a… dd0627a2-4363-46e… 180bff9c-c8a… <chr>    <list> <lgl [1]>      
#> # ℹ 1,710 more rows
#> # ℹ 27 more variables: cell_count <int>, cell_type <list>, citation <chr>,
#> #   default_embedding <chr>, development_stage <list>, disease <list>,
#> #   embeddings <list>, explorer_url <chr>, feature_biotype <list>,
#> #   feature_count <int>, feature_reference <list>, is_primary_data <list>,
#> #   mean_genes_per_cell <dbl>, organism <list>, primary_cell_count <int>,
#> #   raw_data_location <chr>, schema_version <chr>, …

Data sets are classified using ontologies exposed by cellxgenedp to the
user as ‘facets’.

facets <- facets(db)
facets
#> # A tibble: 1,966 × 4
#>    facet label                          ontology_term_id     n
#>    <chr> <chr>                          <chr>            <int>
#>  1 assay 10x 3' v3                      EFO:0009922        807
#>  2 assay 10x 3' v2                      EFO:0009899        364
#>  3 assay Visium Spatial Gene Expression EFO:0010961        298
#>  4 assay Slide-seqV2                    EFO:0030062        240
#>  5 assay 10x 5' v1                      EFO:0011025        118
#>  6 assay Smart-seq2                     EFO:0008931         77
#>  7 assay 10x multiome                   EFO:0030059         72
#>  8 assay 10x 5' v2                      EFO:0009900         58
#>  9 assay sci-RNA-seq3                   EFO:0030028         48
#> 10 assay Drop-seq                       EFO:0008722         27
#> # ℹ 1,956 more rows
…
Annotating the ‘disease’ facet

Our example will work with the ‘disease’ facet, based on the ‘mondo’
ontology. Check that the ontology is in the OLS.

"mondo" %in% get_ontologies()$id
#> [1] TRUE

Retrieve all terms from the ontology.

mondo <- get_terms("mondo")
mondo
#> # A tibble: 26,015 × 14
#>    label     obo_id description iri   synonyms annotation   has_children is_root
#>    <chr>     <chr>  <chr>       <chr> <list>   <list>       <lgl>        <lgl>  
#>  1 disease   MONDO… "A disease… http… <list>   <named list> TRUE         FALSE  
#>  2 adrenoco… MONDO… "An endocr… http… <list>   <named list> TRUE         FALSE  
#>  3 alopecia… MONDO…  NA         http… <NULL>   <named list> TRUE         FALSE  
#>  4 inherite… MONDO…  NA         http… <list>   <named list> TRUE         FALSE  
#>  5 colorbli… MONDO… "Reason of… http… <NULL>   <named list> TRUE         FALSE  
#>  6 classic … MONDO… "A genetic… http… <list>   <named list> TRUE         FALSE  
#>  7 nocturna… MONDO… "Urination… http… <list>   <named list> TRUE         FALSE  
#>  8 infantil… MONDO… "OMIM seri… http… <list>   <named list> TRUE         FALSE  
#>  9 sleep-re… MONDO…  NA         http… <list>   <named list> TRUE         FALSE  
#> 10 febrile … MONDO…  NA         http… <list>   <named list> TRUE         FALSE  
#> # ℹ 26,005 more rows
#> # ℹ 6 more variables: short_form <chr>, in_subset <list>,
#> #   obo_definition_citation <list>, obo_xref <list>, obo_synonym <list>,
#> #   `_links` <list>

There are 26015 terms in this ontology; only a small subset of 148
terms are used in CELLxGENE datasets. Annotate the disease facet with
information from the OLS.

disease_terms <-
    facets(db, "disease") |>
    ## join based on identity between CxG's 'ontology_term_id' and
    ## OLS's 'obo_id'
    left_join(mondo, by = c("label", ontology_term_id = "obo_id")) |>
    ## for consistency with OLSr convention, rename the
    ## 'ontology_term_id' to 'obo_id'
    rename(obo_id = "ontology_term_id")
disease_terms
#> # A tibble: 148 × 16
#>    facet label obo_id     n description iri   synonyms annotation   has_children
#>    <chr> <chr> <chr>  <int> <chr>       <chr> <list>   <list>       <lgl>       
#>  1 dise… norm… PATO:…  1448 NA          NA    <NULL>   <NULL>       NA          
#>  2 dise… COVI… MONDO…    66 A disease … http… <list>   <named list> FALSE       
#>  3 dise… deme… MONDO…    50 Loss of in… http… <list>   <named list> TRUE        
#>  4 dise… brea… MONDO…    34 A primary … http… <list>   <named list> TRUE        
#>  5 dise… myoc… MONDO…    29 Gross necr… http… <list>   <named list> TRUE        
#>  6 dise… diab… MONDO…    26 Progressiv… http… <list>   <named list> FALSE       
#>  7 dise… Alzh… MONDO…    24 A progress… http… <list>   <named list> TRUE        
#>  8 dise… auto… MONDO…    24 Autosomal … http… <list>   <named list> TRUE        
#>  9 dise… nonp… MONDO…    19 NA          http… <list>   <named list> TRUE        
#> 10 dise… colo… MONDO…    17 A primary … http… <list>   <named list> TRUE        
#> # ℹ 138 more rows
#> # ℹ 7 more variables: is_root <lgl>, short_form <chr>, in_subset <list>,
#> #   obo_definition_citation <list>, obo_xref <list>, obo_synonym <list>,
#> #   `_links` <list>
…
There are 973 terms descending from ‘carcinoma’. Terms used by the
disease facet are

disease_terms |>
    inner_join(carcinoma) |>
    select(obo_id, n, label, description)
#> Joining with `by = join_by(label, obo_id, description, iri, synonyms,
#> annotation, has_children, is_root, short_form, in_subset,
#> obo_definition_citation, obo_xref, obo_synonym, `_links`)`
#> # A tibble: 22 × 4
#>    obo_id            n label                             description            
#>    <chr>         <int> <chr>                             <chr>                  
#>  1 MONDO:0007763    19 nonpapillary renal cell carcinoma NA                     
#>  2 MONDO:0005061    12 lung adenocarcinoma               A carcinoma that arise…
#>  3 MONDO:0008433    12 small cell lung carcinoma         Small cell lung cancer…
#>  4 MONDO:0004953    11 invasive ductal breast carcinoma  The most common type o…
#>  5 MONDO:0020804    10 basal cell carcinoma              A carcinoma involving …
#>  6 MONDO:0005051     9 invasive lobular breast carcinoma An infiltrating lobula…
#>  7 MONDO:0005086     9 renal cell carcinoma              A carcinoma that arise…
#>  8 MONDO:0004989     8 breast carcinoma                  A carcinoma that arise…
#>  9 MONDO:0024885     5 malignant ovarian serous tumor    An invasive malignant …
#> 10 MONDO:0005097     4 squamous cell lung carcinoma      A carcinoma arising fr…
#> # ℹ 12 more rows

The facets_filter() function of cellxgenedp makes it
easy to identify datasets using terms derived from ‘carcinoma’, perhaps
in addition filtering to single type of assay.

datasets_of_interest <-
    datasets(db) |>
    filter(
        facets_filter(disease, "ontology_term_id", carcinoma$obo_id),
        facets_filter(assay, "label", "10x 3' v3")
    )
datasets_of_interest
#> # A tibble: 34 × 33
#>    dataset_id   dataset_version_id collection_id donor_id assay  batch_condition
#>    <chr>        <chr>              <chr>         <list>   <list> <list>         
#>  1 b6b5ea88-e0… 915069db-1df2-49a… 3c34e6f1-682… <chr>    <list> <lgl [1]>      
#>  2 e3a7e927-26… 56bbc63f-88a9-4e8… 4796c91c-9d8… <chr>    <list> <lgl [1]>      
#>  3 b252b015-b4… 73fbcec3-f602-4e1… 4796c91c-9d8… <chr>    <list> <lgl [1]>      
#>  4 97d9238c-1a… bcdad03f-c1d3-4c5… 4796c91c-9d8… <chr>    <list> <lgl [1]>      
#>  5 44c93f2b-dd… c8ceafd0-17c9-4da… 4796c91c-9d8… <chr>    <list> <lgl [1]>      
#>  6 0caedec7-1c… ffc98fde-61c6-43e… 4796c91c-9d8… <chr>    <list> <lgl [1]>      
#>  7 d41f45c1-1b… 32149a2b-b637-481… efd94500-1fd… <chr>    <list> <lgl [1]>      
#>  8 e500acbf-f1… a3a5125b-2e73-4a7… 7dd599c5-d25… <chr>    <list> <chr [1]>      
#>  9 5d3fc988-76… 7fd0b766-0d34-4b8… 7dd599c5-d25… <chr>    <list> <chr [1]>      
#> 10 3e4e2c8e-cd… 5f902c20-a2a0-47c… 7dd599c5-d25… <chr>    <list> <chr [1]>      
#> # ℹ 24 more rows
#> # ℹ 27 more variables: cell_count <int>, cell_type <list>, citation <chr>,
#> #   default_embedding <chr>, development_stage <list>, disease <list>,
#> #   embeddings <list>, explorer_url <chr>, feature_biotype <list>,
#> #   feature_count <int>, feature_reference <list>, is_primary_data <list>,
#> #   mean_genes_per_cell <dbl>, organism <list>, primary_cell_count <int>,
#> #   raw_data_location <chr>, schema_version <chr>, …
…
get_descendants_graph() returns a
olsr_graph object, which contains information about the
type of graph (ancestors or descendants), the ontology used to construct
the graph, and the ids used to seed the query.

carcinoma_graph
#> class: descendants_graph (974 nodes x 1571 edges)
#> ontology: mondo
#> ids (1): MONDO:0004993

The object can be queried from relevant components, for instance
annotation of each node

olsr_graph_nodes(carcinoma_graph)
#> # A tibble: 974 × 14
#>    obo_id     label description iri   synonyms annotation   has_children is_root
#>    <chr>      <chr> <chr>       <chr> <list>   <list>       <lgl>        <lgl>  
#>  1 MONDO:000… carc… A malignan… http… <list>   <named list> TRUE         FALSE  
#>  2 MONDO:085… lymp… A lymph no… http… <NULL>   <named list> FALSE        FALSE  
#>  3 MONDO:004… glyc… A carcinom… http… <list>   <named list> TRUE         FALSE  
#>  4 MONDO:004… inva… A carcinom… http… <list>   <named list> TRUE         FALSE  
#>  5 MONDO:002… seco… A carcinom… http… <list>   <named list> TRUE         FALSE  
#>  6 MONDO:002… carc… A carcinom… http… <list>   <named list> TRUE         FALSE  
#>  7 MONDO:002… comb… A malignan… http… <list>   <named list> TRUE         FALSE  
#>  8 MONDO:002… basa… A carcinom… http… <list>   <named list> TRUE         FALSE  
#>  9 MONDO:001… mali… An invasiv… http… <list>   <named list> TRUE         FALSE  
#> 10 MONDO:001… chor… A malignan… http… <list>   <named list> TRUE         FALSE  
#> # ℹ 964 more rows
#> # ℹ 6 more variables: short_form <chr>, in_subset <list>,
#> #   obo_definition_citation <list>, obo_xref <list>, obo_synonym <list>,
#> #   `_links` <list>
…
