2. Case Study: CELLxGENE Ontologies • OLSr
…
Start by loading the OLSr and cellxgenedp
packages

library(OLSr)
library(cellxgenedp)

CELLxGENE

A central element of the CELLxGENE resource is the collection of datasets. These are
discovered programmatically using

db <- db()
datasets(db)
#> # A tibble: 1,132 × 31
#>    dataset_id   dataset_version_id collection_id donor_id assay  batch_condition
#>    <chr>        <chr>              <chr>         <list>   <list> <list>         
#>  1 1a38e762-24… 50671879-9cc9-4a9… bacccb91-066… <list>   <list> <list [1]>     
#>  2 fc0ceb80-d2… d9e98068-b506-434… 1ca90a2d-294… <list>   <list> <list [1]>     
#>  3 f67f2cfa-ba… 3361dba5-7446-4e3… 1ca90a2d-294… <list>   <list> <list [1]>     
#>  4 eec3e37d-ed… 427e3253-c230-4d7… 1ca90a2d-294… <list>   <list> <list [1]>     
#>  5 e8ac3386-31… 75338c67-3e91-428… 1ca90a2d-294… <list>   <list> <list [1]>     
#>  6 de104f7e-14… 19cf2bd2-44ba-40a… 1ca90a2d-294… <list>   <list> <list [1]>     
#>  7 d87f3f91-dc… b8883057-f9b4-41e… 1ca90a2d-294… <list>   <list> <list [1]>     
#>  8 d2fc9880-e6… b0313650-ec3e-416… 1ca90a2d-294… <list>   <list> <list [1]>     
#>  9 d0ea3ec4-0f… 806eaf48-4832-42e… 1ca90a2d-294… <list>   <list> <list [1]>     
#> 10 c76098ba-ee… df8e241a-6cf8-43c… 1ca90a2d-294… <list>   <list> <list [1]>     
#> # ℹ 1,122 more rows
#> # ℹ 25 more variables: cell_count <int>, cell_type <list>,
#> #   default_embedding <chr>, development_stage <list>, disease <list>,
#> #   embeddings <list>, explorer_url <chr>, feature_biotype <chr>,
#> #   feature_count <int>, feature_reference <list>, is_primary_data <list>,
#> #   mean_genes_per_cell <dbl>, organism <list>, primary_cell_count <int>,
#> #   raw_data_location <chr>, schema_version <chr>, …

Data sets are classified using ontologies exposed by cellxgenedp to the
user as ‘facets’.

facets <- facets(db)
facets
#> # A tibble: 1,526 × 4
#>    facet label                          ontology_term_id     n
#>    <chr> <chr>                          <chr>            <int>
#>  1 assay 10x 3' v3                      EFO:0009922        538
#>  2 assay 10x 3' v2                      EFO:0009899        236
#>  3 assay Slide-seqV2                    EFO:0030062        223
#>  4 assay Visium Spatial Gene Expression EFO:0010961        108
#>  5 assay 10x 5' v1                      EFO:0011025         69
#>  6 assay Smart-seq2                     EFO:0008931         63
#>  7 assay 10x multiome                   EFO:0030059         60
#>  8 assay 10x 5' v2                      EFO:0009900         18
#>  9 assay sci-RNA-seq3                   EFO:0030028         15
#> 10 assay 10x 5' transcription profiling EFO:0030004         13
#> # ℹ 1,516 more rows
…
Annotating the CELLxGENE ‘disease’ facet

Our example will work with the ‘disease’ facet, based on the ‘mondo’
ontology. Check that the ontology is in the OLS.

"mondo" %in% get_ontologies()$id
#> [1] TRUE

Retrieve all terms from the ontology.

mondo <- get_terms("mondo")
mondo
#> # A tibble: 23,678 × 14
#>    label     obo_id description iri   synonyms annotation   has_children is_root
#>    <chr>     <chr>  <chr>       <chr> <list>   <list>       <lgl>        <lgl>  
#>  1 megacyst… MONDO… NA          http… <list>   <named list> FALSE        FALSE  
#>  2 megacyst… MONDO… NA          http… <list>   <named list> FALSE        FALSE  
#>  3 angioede… MONDO… NA          http… <list>   <named list> FALSE        FALSE  
#>  4 cardiomy… MONDO… A dilated … http… <list>   <named list> FALSE        FALSE  
#>  5 immunode… MONDO… A human im… http… <list>   <named list> FALSE        FALSE  
#>  6 spermato… MONDO… NA          http… <list>   <named list> FALSE        FALSE  
#>  7 immunode… MONDO… A complex … http… <list>   <named list> FALSE        FALSE  
#>  8 Leber he… MONDO… NA          http… <list>   <named list> FALSE        FALSE  
#>  9 combined… MONDO… NA          http… <list>   <named list> FALSE        FALSE  
#> 10 spinocer… MONDO… NA          http… <list>   <named list> FALSE        FALSE  
#> # ℹ 23,668 more rows
#> # ℹ 6 more variables: short_form <chr>, in_subset <list>,
#> #   obo_definition_citation <list>, obo_xref <list>, obo_synonym <list>,
#> #   `_links` <list>

There are 23678 terms in this ontology; only a small subset of 92
terms are used in CELLxGENE datasets. Annotate the disease facet with
information from the OLS.

disease_terms <-
    facets(db, "disease") |>
    ## join based on identity between CxG's 'ontology_term_id' and
    ## OLS's 'obo_id'
    left_join(mondo, by = c("label", ontology_term_id = "obo_id")) |>
    ## for consistency with OLSr convention, rename the
    ## 'ontology_term_id' to 'obo_id'
    rename(obo_id = "ontology_term_id")
disease_terms
#> # A tibble: 92 × 16
#>    facet label obo_id     n description iri   synonyms annotation   has_children
#>    <chr> <chr> <chr>  <int> <chr>       <chr> <list>   <list>       <lgl>       
#>  1 dise… norm… PATO:…   963 NA          NA    <NULL>   <NULL>       NA          
#>  2 dise… COVI… MONDO…    55 A disease … http… <list>   <named list> FALSE       
#>  3 dise… deme… MONDO…    50 Loss of in… http… <list>   <named list> TRUE        
#>  4 dise… diab… MONDO…    26 Progressiv… http… <list>   <named list> FALSE       
#>  5 dise… myoc… MONDO…    26 Gross necr… http… <list>   <named list> TRUE        
#>  6 dise… auto… MONDO…    24 Autosomal … http… <list>   <named list> TRUE        
#>  7 dise… Alzh… MONDO…    15 A progress… http… <list>   <named list> TRUE        
#>  8 dise… brea… MONDO…    13 A primary … http… <list>   <named list> TRUE        
#>  9 dise… lung… MONDO…    11 A carcinom… http… <list>   <named list> TRUE        
#> 10 dise… smal… MONDO…    11 Small cell… http… <list>   <named list> TRUE        
#> # ℹ 82 more rows
#> # ℹ 7 more variables: is_root <lgl>, short_form <chr>, in_subset <list>,
#> #   obo_definition_citation <list>, obo_xref <list>, obo_synonym <list>,
#> #   `_links` <list>
…
get_descendants_graph() returns a
olsr_graph object, which contains information about the
type of graph (ancestors or descendants), the ontology used to construct
the graph, and the ids used to seed the query.

carcinoma_graph
#> class: descendants_graph (988 nodes x 1578 edges)
#> ontology: mondo
#> ids (1): MONDO:0004993

The object can be queried from relevant components, for instance
annotation of each node

olsr_graph_nodes(carcinoma_graph)
#> # A tibble: 988 × 14
#>    obo_id     label description iri   synonyms annotation   has_children is_root
#>    <chr>      <chr> <chr>       <chr> <list>   <list>       <lgl>        <lgl>  
#>  1 MONDO:000… carc… A malignan… http… <list>   <named list> TRUE         FALSE  
#>  2 MONDO:085… lymp… A lymph no… http… <NULL>   <named list> FALSE        FALSE  
#>  3 MONDO:004… glyc… A carcinom… http… <list>   <named list> TRUE         FALSE  
#>  4 MONDO:004… inva… A carcinom… http… <list>   <named list> TRUE         FALSE  
#>  5 MONDO:002… seco… A carcinom… http… <list>   <named list> TRUE         FALSE  
#>  6 MONDO:002… carc… A carcinom… http… <list>   <named list> TRUE         FALSE  
#>  7 MONDO:002… basa… A carcinom… http… <list>   <named list> TRUE         FALSE  
#>  8 MONDO:002… muci… NA          http… <list>   <named list> TRUE         FALSE  
#>  9 MONDO:001… mali… An invasiv… http… <list>   <named list> TRUE         FALSE  
#> 10 MONDO:001… chor… A malignan… http… <list>   <named list> TRUE         FALSE  
#> # ℹ 978 more rows
#> # ℹ 6 more variables: short_form <chr>, in_subset <list>,
#> #   obo_definition_citation <list>, obo_xref <list>, obo_synonym <list>,
#> #   `_links` <list>
…
