Introduction to OLSr • OLSr
…
Attach the library to the current session. Most functions in OLSr return results as a
tibble, so the dplyr package is
also attached.

library(OLSr)

Ontologies

Start by discovering ontologies available in the OLS.

onto <- get_ontologies()
onto
#> # A tibble: 249 × 31
#>    id        title          description version numberOfTerms numberOfProperties
#>    <chr>     <chr>          <chr>       <chr>           <int>              <int>
#>  1 ado       Alzheimer's D… Alzheimer'… 2.0.1            1963                186
#>  2 agro      Agronomy Onto… AgrO is an… NA               4162                293
#>  3 aism      Ontology for … The ontolo… 2023-0…          7443                547
#>  4 amphx     Amphioxus Dev… An ontolog… NA                403                 10
#>  5 apo       Ascomycete Ph… A structur… 2023-1…           619                 27
#>  6 apollo_sv Apollo Struct… An OWL2 on… 2023-0…          1691                366
#>  7 aro       Antibiotic Re… Antibiotic… NA               7105                 25
#>  8 bco       Biological Co… An ontolog… 2021-1…           253                472
#>  9 bfo       Basic Formal … The upper … NA                 35                 22
#> 10 bspo      Biological Sp… An ontolog… 2023-0…           169                236
#> # ℹ 239 more rows
#> # ℹ 25 more variables: numberOfIndividuals <int>, languages <list>,
#> #   loaded <chr>, updated <chr>, versionIri <chr>, namespace <chr>,
#> #   preferredPrefix <chr>, homepage <chr>, mailingList <chr>, tracker <chr>,
#> #   logo <lgl>, creators <lgl>, annotations <lgl>, fileLocation <chr>,
#> #   oboSlims <lgl>, labelProperty <chr>, definitionProperties <list>,
#> #   synonymProperties <list>, hierarchicalProperties <list>, baseUris <list>, …
…
Terms

Terms are central to using an ontology. Retrieve all terms from the
‘cl’ ontology. By default, only terms defined in the ontology per
se are used; add the argument all_ontologies = TRUE to
this and subsequent functions to also include terms referenced in other
ontologies. This query can take several minutes to complete when first
executed, but the result is cached locally (as discussed in greater
detail below) so subsequent use is quick.

terms <- get_terms("cl")
terms
#> # A tibble: 2,734 × 13
#>    label  obo_id description iri   synonyms annotation   has_children short_form
#>    <chr>  <chr>  <chr>       <chr> <list>   <list>       <lgl>        <chr>     
#>  1 cell   CL:00… A material… http… <NULL>   <named list> TRUE         CL_0000000
#>  2 prima… CL:00… A cultured… http… <list>   <named list> FALSE        CL_0000001
#>  3 fibro… CL:00… Any fibrob… http… <NULL>   <NULL>       TRUE         CL_0000005
#>  4 neuro… CL:00… NA          http… <list>   <NULL>       TRUE         CL_0000006
#>  5 early… CL:00… A cell fou… http… <NULL>   <NULL>       TRUE         CL_0000007
#>  6 migra… CL:00… Cell that … http… <NULL>   <NULL>       FALSE        CL_0000008
#>  7 cultu… CL:00… A cell in … http… <NULL>   <named list> TRUE         CL_0000010
#>  8 migra… CL:00… Cell that … http… <NULL>   <NULL>       FALSE        CL_0000011
#>  9 germ … CL:00… A stem cel… http… <list>   <named list> TRUE         CL_0000014
#> 10 male … CL:00… A germ cel… http… <NULL>   <named list> TRUE         CL_0000015
#> # ℹ 2,724 more rows
#> # ℹ 5 more variables: in_subset <list>, obo_definition_citation <list>,
#> #   obo_xref <list>, obo_synonym <list>, `_links` <list>
…
Hierarchical data

Some columns in the terms table represent hieararchical
(relational, 1:many mapping) data, e.g., the in_subset
column

terms |>
    select(label, obo_id, in_subset)
#> # A tibble: 2,734 × 3
#>    label                               obo_id     in_subset 
#>    <chr>                               <chr>      <list>    
#>  1 cell                                CL:0000000 <list [1]>
#>  2 primary cultured cell               CL:0000001 <NULL>    
#>  3 fibroblast neural crest derived     CL:0000005 <NULL>    
#>  4 neuronal receptor cell              CL:0000006 <NULL>    
#>  5 early embryonic cell (metazoa)      CL:0000007 <NULL>    
#>  6 migratory cranial neural crest cell CL:0000008 <NULL>    
#>  7 cultured cell                       CL:0000010 <NULL>    
#>  8 migratory trunk neural crest cell   CL:0000011 <NULL>    
#>  9 germ line stem cell                 CL:0000014 <NULL>    
#> 10 male germ cell                      CL:0000015 <NULL>    
#> # ℹ 2,724 more rows
…
The R for Data Science chapter on hierarchical data suggests
using tidyr
functions unnest_wider() and unnest_longer()
to expand such data.

terms |>
    select(in_subset, obo_id, label) |>
    tidyr::unnest_longer(in_subset)
#> # A tibble: 710 × 3
#>    in_subset                     obo_id     label                    
#>    <chr>                         <chr>      <chr>                    
#>  1 _upper_level                  CL:0000000 cell                     
#>  2 human_reference_atlas         CL:0000033 apocrine cell            
#>  3 general_cell_types_upper_slim CL:0000034 stem cell                
#>  4 human_reference_atlas         CL:0000034 stem cell                
#>  5 human_reference_atlas         CL:0000036 epithelial fate stem cell
#>  6 blood_and_immune_upper_slim   CL:0000037 hematopoietic stem cell  
#>  7 human_reference_atlas         CL:0000037 hematopoietic stem cell  
#>  8 blood_and_immune_upper_slim   CL:0000038 erythroid progenitor cell
#>  9 general_cell_types_upper_slim CL:0000039 germ line cell           
#> 10 _upper_level                  CL:0000039 germ line cell           
#> # ℹ 700 more rows
…
is_human_reference_atlas <- function(x)
    vapply(x, \(x) any(x == "human_reference_atlas"), logical(1))

human_reference_atlas <-
    terms |>
    filter(is_human_reference_atlas(in_subset))

human_reference_atlas
#> # A tibble: 486 × 13
#>    label  obo_id description iri   synonyms annotation   has_children short_form
#>    <chr>  <chr>  <chr>       <chr> <list>   <list>       <lgl>        <chr>     
#>  1 apocr… CL:00… An exocrin… http… <NULL>   <named list> FALSE        CL_0000033
#>  2 stem … CL:00… A relative… http… <list>   <named list> TRUE         CL_0000034
#>  3 epith… CL:00… NA          http… <list>   <named list> TRUE         CL_0000036
#>  4 hemat… CL:00… A stem cel… http… <list>   <named list> TRUE         CL_0000037
#>  5 matur… CL:00… A fully di… http… <list>   <named list> FALSE        CL_0000041
#>  6 commo… CL:00… A progenit… http… <list>   <named list> TRUE         CL_0000049
#>  7 megak… CL:00… A progenit… http… <list>   <named list> TRUE         CL_0000050
#>  8 commo… CL:00… A oligopot… http… <list>   <named list> TRUE         CL_0000051
#>  9 fibro… CL:00… A connecti… http… <NULL>   <named list> TRUE         CL_0000057
#> 10 epend… CL:00… A neurecto… http… <list>   <named list> TRUE         CL_0000065
#> # ℹ 476 more rows
#> # ℹ 5 more variables: in_subset <list>, obo_definition_citation <list>,
#> #   obo_xref <list>, obo_synonym <list>, `_links` <list>
…
Use cache_directory() to discover the location of the
cache.

cache_directory()
#> [1] "/home/runner/.cache/R/OLSr"

This location follows conventions of
tools::R_user_dir(). All files in this directory have been
created by OLSr.

cache_info() is a convenience function to summarize
files in the cache.

cache_info()
#> # A tibble: 60 × 5
#>    file         size mtime               ctime               atime              
#>    <chr>       <dbl> <dttm>              <dttm>              <dttm>             
#>  1 037c5ce6f… 120702 2023-11-20 20:28:20 2023-11-20 20:28:20 2023-11-20 20:28:20
#>  2 08a975d0c…  97541 2023-11-20 20:28:37 2023-11-20 20:28:37 2023-11-20 20:28:37
#>  3 0ebfde694… 240469 2023-11-20 20:28:01 2023-11-20 20:28:01 2023-11-20 20:28:01
#>  4 10fcec98a…  59484 2023-11-20 20:27:35 2023-11-20 20:27:35 2023-11-20 20:27:35
#>  5 19a51f853… 348350 2023-11-20 20:28:11 2023-11-20 20:28:11 2023-11-20 20:28:11
#>  6 19ca6868f…   3900 2023-11-20 20:28:47 2023-11-20 20:28:47 2023-11-20 20:28:47
#>  7 1a20e9bb9…  98686 2023-11-20 20:28:30 2023-11-20 20:28:30 2023-11-20 20:28:30
#>  8 1c4add961… 100883 2023-11-20 20:28:32 2023-11-20 20:28:32 2023-11-20 20:28:32
#>  9 218811c4b… 100723 2023-11-20 20:28:35 2023-11-20 20:28:35 2023-11-20 20:28:35
#> 10 23b568c07…  69711 2023-11-20 20:27:47 2023-11-20 20:27:47 2023-11-20 20:27:47
#> # ℹ 50 more rows

Each file represents the response to a single memoised function call.
The file name is a hash of the function definition and arguments; it is
not possible to associate individual files with specific function calls.
Nonetheless, it can be informative to identify files modified more than,
say 1 day ago, or the most recently modified file, or perhaps the total
size of files in the cache.

## cache objects modified in the last 24 hours
cache_info() |>
    filter(mtime > Sys.time() - 24 * 60 * 60)
#> # A tibble: 60 × 5
#>    file         size mtime               ctime               atime              
#>    <chr>       <dbl> <dttm>              <dttm>              <dttm>             
#>  1 037c5ce6f… 120702 2023-11-20 20:28:20 2023-11-20 20:28:20 2023-11-20 20:28:20
#>  2 08a975d0c…  97541 2023-11-20 20:28:37 2023-11-20 20:28:37 2023-11-20 20:28:37
#>  3 0ebfde694… 240469 2023-11-20 20:28:01 2023-11-20 20:28:01 2023-11-20 20:28:01
#>  4 10fcec98a…  59484 2023-11-20 20:27:35 2023-11-20 20:27:35 2023-11-20 20:27:35
#>  5 19a51f853… 348350 2023-11-20 20:28:11 2023-11-20 20:28:11 2023-11-20 20:28:11
#>  6 19ca6868f…   3900 2023-11-20 20:28:47 2023-11-20 20:28:47 2023-11-20 20:28:47
#>  7 1a20e9bb9…  98686 2023-11-20 20:28:30 2023-11-20 20:28:30 2023-11-20 20:28:30
#>  8 1c4add961… 100883 2023-11-20 20:28:32 2023-11-20 20:28:32 2023-11-20 20:28:32
#>  9 218811c4b… 100723 2023-11-20 20:28:35 2023-11-20 20:28:35 2023-11-20 20:28:35
#> 10 23b568c07…  69711 2023-11-20 20:27:47 2023-11-20 20:27:47 2023-11-20 20:27:47
#> # ℹ 50 more rows
…
